…
    ## Rows: 5836 Columns: 119
    ## ── Column specification ────────────────────────────────────────────────────────
    ## Delimiter: ","
    ## chr   (5): educ, race, gender, income_cat, voter_category
    ## dbl (114): RespId, weight, Q1, Q2_1, Q2_2, Q2_3, Q2_4, Q2_5, Q2_6, Q2_7, Q2_...
    ## 
    ## ℹ Use `spec()` to retrieve the full column specification for this data.
    ## ℹ Specify the column types or set `show_col_types = FALSE` to quiet this message.

``` r
nonvoters <- nonvoters %>% select(ppage, educ, race, gender, income_cat, Q30, voter_category)
nonvoters
```

    ## # A tibble: 5,836 × 7
    ##    ppage educ                race        gender income_cat    Q30 voter_category
    ##    <dbl> <chr>               <chr>       <chr>  <chr>       <dbl> <chr>         
    ##  1    73 College             White       Female $75-125k        2 always        
    ##  2    90 College             White       Female $125k or m…     3 always        
    ##  3    53 College             White       Male   $125k or m…     2 sporadic      
    ##  4    58 Some college        Black       Female $40-75k         2 sporadic      
    ##  5    81 High school or less White       Male   $40-75k         1 always        
    ##  6    61 High school or less White       Female $40-75k         5 rarely/never  
    ##  7    80 High school or less White       Female $125k or m…     1 always        
    ##  8    68 Some college        Other/Mixed Female $75-125k        2 always        
    ##  9    70 College             White       Male   $125k or m…     1 always        
    ## 10    83 Some college        White       Male   $125k or m…     3 always        
    ## # ℹ 5,826 more rows
…
However, we will let R do these calculations.

- In the code chunk below, replace “verbatim” with “r”,
- Provide the code chunk a meaningful name/title, then run it.

``` r
voter_aug <- augment(multi_mod, new_data = nonvoters)

voter_aug
```

    ## # A tibble: 5,836 × 12
    ##    ppage educ     race  gender income_cat   Q30 voter_category party .pred_class
    ##    <dbl> <chr>    <chr> <chr>  <chr>      <dbl> <fct>          <chr> <fct>      
    ##  1    73 College  White Female $75-125k       2 always         Demo… always     
    ##  2    90 College  White Female $125k or …     3 always         Inde… always     
    ##  3    53 College  White Male   $125k or …     2 sporadic       Demo… sporadic   
    ##  4    58 Some co… Black Female $40-75k        2 sporadic       Demo… sporadic   
    ##  5    81 High sc… White Male   $40-75k        1 always         Repu… sporadic   
    ##  6    61 High sc… White Female $40-75k        5 rarely/never   Other sporadic   
    ##  7    80 High sc… White Female $125k or …     1 always         Repu… sporadic   
    ##  8    68 Some co… Othe… Female $75-125k       2 always         Demo… sporadic   
    ##  9    70 College  White Male   $125k or …     1 always         Repu… sporadic   
    ## 10    83 Some co… White Male   $125k or …     3 always         Inde… always     
    ## # ℹ 5,826 more rows
    ## # ℹ 3 more variables: `.pred_rarely/never` <dbl>, .pred_sporadic <dbl>,
    ## #   .pred_always <dbl>

``` r
voter_aug %>% 
  select(contains("pred"))
```

    ## # A tibble: 5,836 × 4
    ##    .pred_class `.pred_rarely/never` .pred_sporadic .pred_always
    ##    <fct>                      <dbl>          <dbl>        <dbl>
    ##  1 always                    0.0352          0.411        0.554
    ##  2 always                    0.0153          0.402        0.583
    ##  3 sporadic                  0.119           0.489        0.391
    ##  4 sporadic                  0.121           0.485        0.394
    ##  5 sporadic                  0.0930          0.505        0.402
    ##  6 sporadic                  0.204           0.472        0.324
    ##  7 sporadic                  0.0778          0.504        0.418
    ##  8 sporadic                  0.102           0.515        0.382
    ##  9 sporadic                  0.0516          0.475        0.474
    ## 10 always                    0.0380          0.454        0.508
    ## # ℹ 5,826 more rows
…
